[        nan         nan         nan 11.07604599 10.98928928 10.73133087
 10.53481042 10.34119311 10.20763009  9.99124282  9.78531781  9.55938297
  9.30245392  9.05866808  8.82739006  8.65948032  8.43219471  8.26449203
  8.11083794  7.95507622  7.782897    7.6526823   7.48548222]
[       nan        nan        nan 0.26143652 0.26492539 0.3126649
 0.34687714 0.31351378 0.30699464 0.31042712 0.32935537 0.30602454
 0.28787825 0.26808581 0.23286295 0.20326047 0.19552766 0.18429539
 0.18733266 0.18468831 0.19488193 0.20242971 0.18941632]
[        nan         nan         nan 10.96734619 10.7396183  10.59878922
 10.38504247 10.11374392 10.04335103  9.79233646  9.56092945  9.34676976
  9.09436384  8.88096411  8.6742363   8.4697113   8.26214314  8.08762646
  7.94639206  7.77017212  7.62372494  7.46999884  7.3364892 ]
[       nan        nan        nan 0.17193653 0.24201429 0.31501493
 0.33104894 0.28519406 0.25415245 0.27838179 0.26558028 0.25896899
 0.23292589 0.22760788 0.19875099 0.16661419 0.16785985 0.16976053
 0.1526918  0.17217281 0.17321682 0.17674403 0.16034186]
[        nan         nan         nan         nan         nan 10.47307968
 10.2305088  10.01997128  9.85213046  9.62957287  9.35358715  9.12225836
  8.86561394  8.62145996  8.44073105  8.25276279  8.07956696  7.8911438
  7.75256634  7.58788252  7.46291828  7.32698536  7.20669031]
[       nan        nan        nan        nan        nan 0.31532353
 0.29036891 0.29248123 0.24436905 0.22627749 0.20073737 0.18604308
 0.14869836 0.16332339 0.15848798 0.13591564 0.14036003 0.14400941
 0.14166562 0.15097257 0.14420165 0.14285599 0.12790358]
