-6.683058161551799436e+00
-6.506966902496118976e+00
-5.753639235837507471e+00
-5.622360321198188515e+00
-5.059808871153899545e+00
-4.549519253181582457e+00
-4.081141031811546860e+00
-3.720472697369204162e+00
-3.414174694647142516e+00
-3.164506468200444012e+00
-2.869870931888268029e+00
-2.677449685774596411e+00
-2.552543723151091459e+00
-2.442698459225008722e+00
-2.348592247183739712e+00
-2.266057359128526905e+00
-2.071436297874125199e+00
-1.903603884710033833e+00
-1.815926732458217119e+00
-1.764050659778962915e+00
-1.643205956511003318e+00
-1.552954694430629834e+00
-1.473127176713293629e+00
